// EVENT 0125
Name "Stage 5"

355("ex_choice_add(\"Book Reading\",1,")
655("\"s[1119] and s[1120] and s[1121]\",1)")
655("ex_choice_add(\"Pray to the Goddess\",2,")
655("\"s[1026]\",1)")
655("ex_choice_add(\"Promestein's Lecture\",3,")
655("\"s[1041]\",1)")
655("ex_choice_add(\"Chrome's Lesson\",4,")
655("\"s[1134] and s[1135]\",1)")
655("ex_choice_add(\"To the Oppressed\",5,")
655("\"s[1158] and s[1160] and s[1163]\",1)")
355("ex_choice_add(\"Alchemist's dream\",6,")
655("\"s[1182] and s[1183] and s[1167]\",1)")
655("ex_choice_add(\"The Princess's Concert\",7,")
655("\"s[1529]\",1)")
655("ex_choice_add(\"Sieg Makina\",8,")
655("\"s[1094] and s[1126] and s[1128] and ")
655("s[1129] and s[1178] and s[1185] and ")
655("s[1531]\",1)")
355("ex_choice_add(\"The world of an Apoptosis\",9,")
655("\"s[1076] and s[1077] and s[1078] and ")
655("s[1092] and s[1093] and s[1094] and ")
655("s[1176] and s[1177] and s[1178] and ")
655("s[1179]\",1)")
655("ex_choice_add(\"Four Spirits Show\",10,")
655("\"s[1012] and s[1013] and s[1014] and ")
655("s[1015]\",1)")
655("ex_choice_add(\"Cancel\",11)")
355("ex_choice_show(0,11,[0,0])")
If(1,9,0,1,0)
 ChangeSwitch(641,641,0)
 221()
 242(1)
 Wait(60)
 211(0)
 TeleportPlayer(0,642,0,1,0,2)
 222()
 EndEventProcessing()
 0()
EndIf()
If(1,9,0,2,0)
 ChangeSwitch(642,642,0)
 221()
 242(1)
 Wait(60)
 211(0)
 TeleportPlayer(0,642,0,1,0,2)
 222()
 EndEventProcessing()
 0()
EndIf()
If(1,9,0,3,0)
 ChangeSwitch(643,643,0)
 221()
 242(1)
 Wait(60)
 211(0)
 TeleportPlayer(0,642,0,1,0,2)
 222()
 EndEventProcessing()
 0()
EndIf()
If(1,9,0,4,0)
 ChangeSwitch(644,644,0)
 221()
 242(1)
 Wait(60)
 211(0)
 TeleportPlayer(0,642,0,1,0,2)
 222()
 EndEventProcessing()
 0()
EndIf()
If(1,9,0,5,0)
 ChangeSwitch(645,645,0)
 221()
 242(1)
 Wait(60)
 211(0)
 TeleportPlayer(0,642,0,1,0,2)
 222()
 EndEventProcessing()
 0()
EndIf()
If(1,9,0,6,0)
 ChangeSwitch(646,646,0)
 221()
 242(1)
 Wait(60)
 211(0)
 TeleportPlayer(0,642,0,1,0,2)
 222()
 EndEventProcessing()
 0()
EndIf()
If(1,9,0,7,0)
 ChangeSwitch(647,647,0)
 221()
 242(1)
 Wait(60)
 211(0)
 TeleportPlayer(0,642,0,1,0,2)
 222()
 EndEventProcessing()
 0()
EndIf()
If(1,9,0,8,0)
 ChangeSwitch(648,648,0)
 221()
 242(1)
 Wait(60)
 211(0)
 TeleportPlayer(0,642,0,1,0,2)
 222()
 EndEventProcessing()
 0()
EndIf()
If(1,9,0,9,0)
 ChangeSwitch(649,649,0)
 221()
 242(1)
 Wait(60)
 211(0)
 TeleportPlayer(0,637,0,1,0,2)
 222()
 EndEventProcessing()
 0()
EndIf()
If(1,9,0,10,0)
 ChangeSwitch(650,650,0)
 221()
 242(1)
 Wait(60)
 211(0)
 TeleportPlayer(0,642,0,1,0,2)
 222()
 EndEventProcessing()
 0()
EndIf()
0()
